graph {
	0;
	1;
	2;
	3;
	4;
	5;
	6;

	subgraph g {
		1 -- 3 [label = 9.00];
		5 -- 6 [label = 11.00];
	}
	subgraph acm {
		edge [color = red]
		 0 -- 1 [fontcolor = red, label = 7.00];
		 0 -- 3 [fontcolor = red, label = 5.00];
		 1 -- 2 [fontcolor = red, label = 8.00];
		 4 -- 5 [fontcolor = red, label = 8.00];
		 4 -- 6 [fontcolor = red, label = 9.00];
	}
}
