\babel@toc {french}{}\relax 
\contentsline {section}{\tocsection {}{1}{Introduction : l'algèbre moderne}}{1}{section.1}%
\contentsline {subsection}{\tocsubsection {}{1.1}{L'Algèbre ou l'analyse des équations}}{1}{subsection.1.1}%
\contentsline {subsection}{\tocsubsection {}{1.2}{L'algèbre ou l'axiomatisation des structures algébriques}}{2}{subsection.1.2}%
\contentsline {subsection}{\tocsubsection {}{1.3}{Intérêts de l'axiomatisation }}{3}{subsection.1.3}%
\contentsline {subsection}{\tocsubsection {}{1.4}{L'Algèbre moderne}}{4}{subsection.1.4}%
\contentsline {subsection}{\tocsubsection {}{1.5}{Bourbaki}}{4}{subsection.1.5}%
\contentsline {section}{\tocsection {}{2}{Catégories}}{4}{section.2}%
\contentsline {subsection}{\tocsubsection {}{2.1}{Définition}}{4}{subsection.2.1}%
\contentsline {subsection}{\tocsubsection {}{2.2}{Exemples}}{5}{subsection.2.2}%
\contentsline {subsubsection}{\tocsubsubsection {}{2.2.1}{Catégories <<concrètes>>}}{5}{subsubsection.2.2.1}%
\contentsline {subsubsection}{\tocsubsubsection {}{2.2.2}{Catégories <<non-concrètes>>}}{5}{subsubsection.2.2.2}%
\contentsline {subsubsection}{\tocsubsubsection {}{2.2.3}{Contre-exemple}}{6}{subsubsection.2.2.3}%
\contentsline {subsection}{\tocsubsection {}{2.3}{Catégories petites et localement petites}}{6}{subsection.2.3}%
\contentsline {subsection}{\tocsubsection {}{2.4}{Constructions de catégories}}{8}{subsection.2.4}%
\contentsline {subsubsection}{\tocsubsubsection {}{2.4.1}{Catégories associées à des ensembles partiellement ordonnés}}{8}{subsubsection.2.4.1}%
\contentsline {subsubsection}{\tocsubsubsection {}{2.4.2}{Catégorie associée à un graphe}}{9}{subsubsection.2.4.2}%
\contentsline {subsubsection}{\tocsubsubsection {}{2.4.3}{Union disjointe de catégories}}{11}{subsubsection.2.4.3}%
\contentsline {subsubsection}{\tocsubsubsection {}{2.4.4}{Joint de catégories}}{11}{subsubsection.2.4.4}%
\contentsline {subsubsection}{\tocsubsubsection {}{2.4.5}{Produit de catégories}}{12}{subsubsection.2.4.5}%
\contentsline {section}{\tocsection {}{3}{Propriétés des morphismes}}{12}{section.3}%
\contentsline {subsection}{\tocsubsection {}{3.1}{Isomorphisme dans une Catégorie}}{12}{subsection.3.1}%
\contentsline {subsection}{\tocsubsection {}{3.2}{Monomorphismes et Applications Injectives}}{12}{subsection.3.2}%
\contentsline {subsection}{\tocsubsection {}{3.3}{Epimorphisme dans une catégorie}}{14}{subsection.3.3}%
\contentsline {section}{\tocsection {}{4}{Catégorie en informatique}}{16}{section.4}%
\contentsline {subsection}{\tocsubsection {}{4.1}{Exemple de catégorie en informatique}}{16}{subsection.4.1}%
\contentsline {section}{\tocsection {}{5}{Produit dans une catégorie}}{17}{section.5}%
\contentsline {subsection}{\tocsubsection {}{5.1}{Exemples de produits}}{17}{subsection.5.1}%
\contentsline {subsection}{\tocsubsection {}{5.2}{Exemple de départ : produit cartésien dans les ensembles}}{18}{subsection.5.2}%
\contentsline {subsection}{\tocsubsection {}{5.3}{Produit dans une catégorie}}{18}{subsection.5.3}%
\contentsline {subsection}{\tocsubsection {}{5.4}{Propriétés sur le produit d'objets dans une catégorie}}{19}{subsection.5.4}%
\contentsline {subsection}{\tocsubsection {}{5.5}{Proposition 7}}{20}{subsection.5.5}%
\contentsline {subsection}{\tocsubsection {}{5.6}{Proposition 8}}{22}{subsection.5.6}%
\contentsline {subsection}{\tocsubsection {}{5.7}{Propriété 9}}{25}{subsection.5.7}%
