graph {
	0;
	1;
	2;
	3;
	4;
	5;
	6;
	7;
	8;
	9;

	1 -- 2;
	1 -- 2;
	1 -- 2;
	1 -- 2;
	1 -- 2;
	1 -- 2;
	1 -- 5;
	1 -- 5;
	1 -- 5;
	1 -- 5;
	1 -- 5;
	1 -- 5;
	1 -- 7;
	1 -- 7;
	1 -- 7;
	1 -- 7;
	1 -- 7;
	1 -- 7;
	1 -- 7;
	1 -- 7;
	1 -- 7;
	1 -- 7;
	1 -- 7;
	1 -- 7;
	1 -- 7;
	1 -- 7;
	1 -- 7;
	1 -- 7;
	1 -- 9;
	1 -- 9;
	1 -- 9;
	1 -- 9;
	1 -- 9;
	1 -- 9;
	2 -- 4;
	2 -- 4;
	2 -- 4;
	2 -- 4;
	2 -- 4;
	2 -- 4;
	2 -- 6;
	2 -- 6;
	2 -- 6;
	2 -- 6;
	4 -- 5;
	4 -- 5;
	4 -- 5;
	4 -- 5;
	4 -- 5;
	4 -- 5;
	4 -- 5;
	4 -- 5;
	4 -- 5;
	4 -- 5;
	4 -- 5;
	4 -- 7;
	4 -- 7;
	4 -- 7;
	4 -- 7;
	4 -- 7;
	4 -- 7;
	4 -- 7;
	4 -- 7;
	4 -- 7;
	4 -- 7;
	4 -- 7;
	4 -- 7;
	4 -- 7;
	4 -- 7;
	4 -- 7;
	4 -- 7;
	4 -- 7;
	4 -- 7;
	4 -- 7;
	4 -- 7;
	4 -- 7;
	4 -- 7;
	4 -- 9;
	4 -- 9;
	4 -- 9;
	4 -- 9;
	4 -- 9;
	4 -- 9;
	4 -- 9;
	4 -- 9;
	4 -- 9;
	4 -- 9;
	4 -- 9;
	5 -- 6;
	5 -- 6;
	5 -- 6;
	5 -- 6;
	5 -- 6;
	6 -- 7;
	6 -- 7;
	6 -- 7;
	6 -- 7;
	6 -- 7;
	6 -- 7;
	6 -- 7;
	6 -- 7;
	6 -- 7;
	6 -- 7;
	6 -- 7;
	6 -- 7;
	6 -- 9;
	6 -- 9;
	6 -- 9;
	6 -- 9;
	6 -- 9;
}
